Division,WeightClassKg,Place,Name,Team,BodyweightKg,Best3SquatKg,Best3BenchKg,Best3DeadliftKg,TotalKg,Equipment,Event,Sex
Boys,51.71,1,Darian Butler,Denison,46.72,102.06,47.63,113.4,263.08,Single-ply,SBD,M
Boys,51.71,2,Jeremy Cuellar,Denison,51.26,79.38,58.97,113.4,251.74,Single-ply,SBD,M
Boys,51.71,3,Seth McGehee,Bells,48.81,79.38,47.63,122.47,249.48,Single-ply,SBD,M
Boys,51.71,4,Joseph Lewis,Bells,51.44,79.38,43.09,102.06,224.53,Single-ply,SBD,M
Boys,51.71,5,Matt Howard #2,Celina,48.99,70.31,45.36,97.52,213.19,Single-ply,SBD,M
Boys,55.79,1,Alex Rushing,Whitewright,54.88,127.01,77.11,133.81,337.93,Single-ply,SBD,M
Boys,55.79,2,Michael Slack,Whitewright,55.7,115.67,86.18,124.74,326.59,Single-ply,SBD,M
Boys,55.79,3,Jacob Cunliffe,Bells,55.16,97.52,56.7,111.13,265.35,Single-ply,SBD,M
Boys,59.87,1,Wilson Kirkbride,Denison,59.15,158.76,83.91,163.29,405.97,Single-ply,SBD,M
Boys,59.87,2,Chris Bowling,Blue Ridge,59.06,151.95,92.99,151.95,396.89,Single-ply,SBD,M
Boys,67.13,3,Jj Brian,Leonard,60.06,145.15,83.91,158.76,387.82,Single-ply,SBD,M
Boys,59.87,4,Andrew Magedson,Leonard,59.42,147.42,83.91,154.22,385.55,Single-ply,SBD,M
Boys,67.13,5,Alex Montoya,Blue Ridge,59.96,154.22,77.11,151.95,383.29,Single-ply,SBD,M
Boys,59.87,6,Bruce Chartier,Bells,59.06,124.74,61.23,136.08,322.05,Single-ply,SBD,M
Boys,59.87,7,Michael Helman,Lindsay,56.7,111.13,68.04,136.08,315.25,Single-ply,SBD,M
Boys,59.87,8,Jonathan Harris,Whitesboro,57.88,83.91,77.11,154.22,315.25,Single-ply,SBD,M
Boys,59.87,9,Tyler Shipman,Collinsville,59.69,106.59,56.7,136.08,299.37,Single-ply,SBD,M
Boys,59.87,DQ,Chase Otto,Lindsay,57.06,90.72,,113.4,,Single-ply,SBD,M
Boys,67.13,1,Deontre Baker,Denison,64.77,181.44,88.45,229.06,498.95,Single-ply,SBD,M
Boys,67.13,2,Jake Ratcliff,Denison,66.68,192.78,90.72,195.04,478.54,Single-ply,SBD,M
Boys,67.13,3,Erik Torres,Celina,63.59,167.83,129.27,179.17,476.27,Single-ply,SBD,M
Boys,67.13,4,Tre Adger,Sherman,61.78,170.1,102.06,179.17,451.32,Single-ply,SBD,M
Boys,74.84,5,Eric de la Cruz,Pottsboro,67.31,124.74,83.91,147.42,356.07,Single-ply,SBD,M
Boys,67.13,6,Cristian Contreras,Leonard,63.05,108.86,90.72,147.42,347,Single-ply,SBD,M
Boys,67.13,7,Raul Rico,Gunter,66.95,117.93,81.65,147.42,347,Single-ply,SBD,M
Boys,67.13,8,DeVante Clayton,Sherman,64.95,113.4,65.77,138.35,317.51,Single-ply,SBD,M
Boys,74.84,9,Gabriel García,Bells,67.31,106.59,70.31,136.08,312.98,Single-ply,SBD,M
Boys,67.13,10,Kameron Hansen,Whitewright,65.68,115.67,79.38,113.4,308.44,Single-ply,SBD,M
Boys,67.13,11,Mikey Hymel,Howe,63.59,111.13,65.77,129.27,306.17,Single-ply,SBD,M
Boys,67.13,12,Zak Franseo,Sadler S & S Cons,60.69,99.79,54.43,136.08,290.3,Single-ply,SBD,M
Boys,67.13,13,Wade Rolen,Bells,66.77,90.72,54.43,131.54,276.69,Single-ply,SBD,M
Boys,74.84,1,Tanner Johnson,Whitesboro,73.57,238.14,108.86,231.33,578.33,Single-ply,SBD,M
Boys,74.84,2,Joaquin Lopez,Howe,73.3,215.46,138.35,215.46,569.26,Single-ply,SBD,M
Boys,74.84,3,Tristan Coglon,Bells,69.4,170.1,102.06,195.04,467.2,Single-ply,SBD,M
Boys,74.84,4,Taylor Barrett,Pilot Point,69.22,165.56,97.52,172.37,435.45,Single-ply,SBD,M
Boys,74.84,5,Andrew Griffin,Howe,73.3,165.56,92.99,174.63,433.18,Single-ply,SBD,M
Boys,74.84,6,Queston Stumpff,Pottsboro,68.4,165.56,97.52,142.88,405.97,Single-ply,SBD,M
Boys,74.84,7,Colt Galoway,Pilot Point,73.21,140.61,90.72,163.29,394.63,Single-ply,SBD,M
Boys,74.84,8,Joseph Villanucva,Blue Ridge,72.48,154.22,81.65,156.49,392.36,Single-ply,SBD,M
Boys,74.84,9,Paul Lutz,Leonard,69.13,127.01,77.11,181.44,385.55,Single-ply,SBD,M
Boys,74.84,10,Ronnie Hart,Leonard,72.21,136.08,79.38,163.29,378.75,Single-ply,SBD,M
Boys,74.84,11,Garrett Self,Collinsville,70.22,124.74,90.72,158.76,374.21,Single-ply,SBD,M
Boys,74.84,12,Frank Castorena,Collinsville,68.49,142.88,65.77,151.95,360.61,Single-ply,SBD,M
Boys,74.84,13,Drew Patterson,Celina,70.03,124.74,83.91,147.42,356.07,Single-ply,SBD,M
Boys,74.84,14,Nate Patterson,Collinsville,71.85,142.88,74.84,136.08,353.8,Single-ply,SBD,M
Boys,74.84,15,Willie Fuhrmann,Lindsay,67.77,136.08,61.23,136.08,333.39,Single-ply,SBD,M
Boys,74.84,16,Latigo Mantooth,Sadler S & S Cons,71.67,104.33,79.38,113.4,297.1,Single-ply,SBD,M
Boys,74.84,17,Jarrett Ryon,Bells,68.86,92.99,70.31,122.47,285.76,Single-ply,SBD,M
Boys,74.84,18,Che Nipper,Pottsboro,69.22,95.25,56.7,117.93,269.89,Single-ply,SBD,M
Boys,74.84,19,Dylan Hall #2,Bells,70.49,79.38,61.23,113.4,254.01,Single-ply,SBD,M
Boys,74.84,DQ,Blake Morris,Pottsboro,74.39,,56.7,,,Single-ply,SBD,M
Boys,74.84,DQ,Alec Beckett,Pilot Point,73.3,149.69,,181.44,,Single-ply,SBD,M
Boys,74.84,DQ,Danny Compton,Whitesboro,70.76,136.08,,163.29,,Single-ply,SBD,M
Boys,74.84,DQ,Kolby Langham,Whitewright,70.4,106.59,,,,Single-ply,SBD,M
Boys,74.84,DQ,Luis Betancourt,Gunter,74.48,131.54,,,,Single-ply,SBD,M
Boys,82.1,1,Devon Blanton,Denison,80.65,204.12,120.2,226.8,551.11,Single-ply,SBD,M
Boys,82.1,2,Cody McKamy,Whitesboro,79.47,172.37,97.52,208.65,478.54,Single-ply,SBD,M
Boys,82.1,3,Brandon Murphey,Whitesboro,80.47,185.97,99.79,181.44,467.2,Single-ply,SBD,M
Boys,82.1,4,Bradley Walker,Denison,76.84,163.29,97.52,190.51,451.32,Single-ply,SBD,M
Boys,82.1,5,Garrett Hunter,Gunter,80.65,149.69,117.93,181.44,449.06,Single-ply,SBD,M
Boys,82.1,6,Darrion Green,Pilot Point,78.02,167.83,106.59,170.1,444.52,Single-ply,SBD,M
Boys,82.1,7,Athens Gochis,Pilot Point,80.65,172.37,88.45,181.44,442.25,Single-ply,SBD,M
Boys,82.1,8,Tony Puga,Pilot Point,76.38,167.83,92.99,167.83,428.64,Single-ply,SBD,M
Boys,82.1,9,Wyatt Maher,Sadler S & S Cons,77.66,145.15,90.72,181.44,417.3,Single-ply,SBD,M
Boys,82.1,10,Jose Betancourt,Gunter,76.2,158.76,92.99,156.49,408.23,Single-ply,SBD,M
Boys,82.1,11,Tanner Young,Leonard,77.75,142.88,95.25,167.83,405.97,Single-ply,SBD,M
Boys,82.1,12,John Cooper,Whitewright,80.47,145.15,81.65,158.76,385.55,Single-ply,SBD,M
Boys,82.1,13,George Gonzalez,Collinsville,80.38,124.74,88.45,151.95,365.14,Single-ply,SBD,M
Boys,82.1,14,Alan Richards,Lindsay,79.74,136.08,68.04,158.76,362.87,Single-ply,SBD,M
Boys,82.1,15,John Hill,Whitewright,78.93,127.01,92.99,131.54,351.53,Single-ply,SBD,M
Boys,82.1,16,Jace Greening,Celina,78.74,86.18,72.57,136.08,294.84,Single-ply,SBD,M
Boys,82.1,17,Will Roane,Gunter,78.56,83.91,65.77,111.13,260.82,Single-ply,SBD,M
Boys,89.81,1,Chris de la Cruz,Pottsboro,89.54,208.65,131.54,204.12,544.31,Single-ply,SBD,M
Boys,99.79,2,Lake Wilson,Sherman,89.99,163.29,102.06,188.24,453.59,Single-ply,SBD,M
Boys,89.81,3,Drew Martin,Collinsville,87.09,156.49,95.25,181.44,433.18,Single-ply,SBD,M
Boys,89.81,4,Ashton McDaniel,Pottsboro,89.09,154.22,104.33,165.56,424.11,Single-ply,SBD,M
Boys,89.81,5,Jesse Allen,Collinsville,88.72,147.42,83.91,167.83,399.16,Single-ply,SBD,M
Boys,89.81,6,Blake Lerond,Bells,89.54,147.42,83.91,147.42,378.75,Single-ply,SBD,M
Boys,89.81,7,Ryan Burnett,Leonard,89.36,142.88,77.11,145.15,365.14,Single-ply,SBD,M
Boys,89.81,8,Preston Eaves,Leonard,87.36,127.01,92.99,142.88,362.87,Single-ply,SBD,M
Boys,89.81,9,Landon Carasco,Pottsboro,88.63,102.06,65.77,136.08,303.91,Single-ply,SBD,M
Boys,89.81,DQ,Chad Perry,Sherman,83.19,192.78,,210.92,,Single-ply,SBD,M
Boys,99.79,1,Tyrell Jeffries,Denison,94.53,263.08,163.29,272.16,698.53,Single-ply,SBD,M
Boys,99.79,2,Zeke Trejo,Pilot Point,92.62,188.24,97.52,179.17,464.93,Single-ply,SBD,M
Boys,99.79,3,Hunter Hull,Sherman,93.53,179.17,113.4,170.1,462.66,Single-ply,SBD,M
Boys,99.79,4,Daniel Paque,Celina,99.06,151.95,120.2,156.49,428.64,Single-ply,SBD,M
Boys,99.79,5,Clay Almond,Whitewright,97.52,158.76,104.33,147.42,410.5,Single-ply,SBD,M
Boys,99.79,6,Tyler Pickett,Howe,96.71,142.88,86.18,158.76,387.82,Single-ply,SBD,M
Boys,99.79,7,Alex Rangel,Celina,97.98,163.29,79.38,142.88,385.55,Single-ply,SBD,M
Boys,99.79,8,Jayden Powell,Bells,92.08,117.93,97.52,156.49,371.95,Single-ply,SBD,M
Boys,99.79,DQ,Evin Hughes,Bells,92.35,136.08,88.45,,,Single-ply,SBD,M
Boys,99.79,DQ,Dakota Seymore,Celina,96.8,156.49,,142.88,,Single-ply,SBD,M
Boys,109.77,1,Kent Haskett,Whitewright,109.04,204.12,117.93,222.26,544.31,Single-ply,SBD,M
Boys,109.77,2,Hudson Barnes,Leonard,108.14,174.63,124.74,190.51,489.88,Single-ply,SBD,M
Boys,109.77,3,Justin Nichols,Sherman,100.24,176.9,108.86,172.37,458.13,Single-ply,SBD,M
Boys,109.77,4,Ian Mauldin,Leonard,100.43,174.63,102.06,181.44,458.13,Single-ply,SBD,M
Boys,109.77,5,Reid Sauceman,Collinsville,103.33,181.44,81.65,181.44,444.52,Single-ply,SBD,M
Boys,109.77,6,Garrett Holcombe,Denison,104.78,151.95,102.06,154.22,408.23,Single-ply,SBD,M
Boys,109.77,7,Tristan Torres,Sadler S & S Cons,102.51,145.15,86.18,167.83,399.16,Single-ply,SBD,M
Boys,109.77,8,Carlos Montoya,Whitesboro,102.78,142.88,88.45,136.08,367.41,Single-ply,SBD,M
Boys,109.77,DQ,Hunter Flanagan,Pottsboro,107.77,154.22,,154.22,,Single-ply,SBD,M
Boys,109.77,DQ,Bailley Reid,Denison,102.51,226.8,142.88,,,Single-ply,SBD,M
Boys,124.74,1,Tristan Robinson,Whitesboro,112.58,229.06,147.42,231.33,607.81,Single-ply,SBD,M
Boys,124.74,2,Sheldon Parkman,Gunter,113.94,244.94,142.88,219.99,607.81,Single-ply,SBD,M
Boys,124.74,3,Connor Strocher,Pottsboro,115.03,233.6,138.35,219.99,591.94,Single-ply,SBD,M
Boys,124.74,4,Ethan Lawson,Sadler S & S Cons,112.13,219.99,136.08,226.8,582.87,Single-ply,SBD,M
Boys,124.74,5,Carlos Giron,Pilot Point,123.2,210.92,154.22,208.65,573.79,Single-ply,SBD,M
Boys,124.74,6,Kayl Powers,Collinsville,110.95,192.78,111.13,233.6,537.51,Single-ply,SBD,M
Boys,124.74,7,Josh Schnitker,Sherman,118.48,181.44,142.88,204.12,528.44,Single-ply,SBD,M
Boys,124.74,8,Russell Carey,Whitesboro,115.85,204.12,113.4,204.12,521.63,Single-ply,SBD,M
Boys,124.74,9,Tim Edmonds,Pottsboro,112.13,170.1,86.18,172.37,428.64,Single-ply,SBD,M
Boys,124.74,10,Hayden Power,Sherman,116.3,149.69,102.06,154.22,405.97,Single-ply,SBD,M
Boys,124.74,11,Ben Ordaz,Whitesboro,118.48,151.95,90.72,151.95,394.63,Single-ply,SBD,M
Boys,124.74,DQ,Justin Bates,Blue Ridge,115.48,136.08,,136.08,,Single-ply,SBD,M
Boys,124.74,DQ,Austin Bearden,Howe,123.1,,,142.88,,Single-ply,SBD,M
Boys,124.74+,1,Kasey Misenheimer,Whitesboro,130.36,251.74,149.69,238.14,639.57,Single-ply,SBD,M
Boys,124.74+,2,Dawson Medler,Pottsboro,129,260.82,147.42,199.58,607.81,Single-ply,SBD,M
Boys,124.74+,3,Connor Pelzel,Lindsay,129.82,215.46,122.47,217.72,555.65,Single-ply,SBD,M
Boys,124.74+,4,Francisco Estrada,Pilot Point,128.19,215.46,120.2,215.46,551.11,Single-ply,SBD,M
Boys,124.74+,5,Max Gafford,Blue Ridge,155.85,183.7,133.81,226.8,544.31,Single-ply,SBD,M
Boys,124.74+,6,Chris McKinney,Denison,160.3,183.7,108.86,226.8,519.36,Single-ply,SBD,M
Boys,124.74+,7,Hunter Ellender,Lindsay,127.46,204.12,102.06,183.7,489.88,Single-ply,SBD,M
Boys,124.74+,8,Dominic Little,Whitewright,131.63,208.65,90.72,147.42,446.79,Single-ply,SBD,M
Boys,124.74+,9,David Palmore,Sherman,155.13,156.49,99.79,167.83,424.11,Single-ply,SBD,M
Boys,124.74+,10,Jaden Forbes,Denison,139.43,158.76,83.91,170.1,412.77,Single-ply,SBD,M
Boys,124.74+,11,Trey Peterson,Bells,158.3,156.49,83.91,161.03,401.43,Single-ply,SBD,M
Boys,124.74+,DQ,Stephan Taylor,Denison,132.72,,,,,Single-ply,SBD,M
